…
As you can see, we calculated the neighborhood average for all numeric values. On top of that, we were able to easily prefix the column names with “mean_” thanks to another useful across() argument called “.names”.

Not only that, in conjunction with the where() helper, across() unifies "_if" and "_at" semantics, allowing more intuitive and elegant column selection. For example, let’s mutate the square footage variables that are integers (like mutate_if()), and the square footage variables that end with "_sf" (like mutate_at()) to make them doubles.

ames_data %>%
  mutate(across(where(is.integer) & ends_with("_sf"), as.double))

## # A tibble: 2,930 x 6
##    sale_price bsmt_fin_sf_1 first_flr_sf total_bsmt_sf neighborhood gr_liv_area
##         <int>         <dbl>        <dbl>         <dbl> <fct>              <int>
##  1     215000             2         1656          1080 North_Ames          1656
##  2     105000             6          896           882 North_Ames           896
##  3     172000             1         1329          1329 North_Ames          1329
##  4     244000             1         2110          2110 North_Ames          2110
##  5     189900             3          928           928 Gilbert             1629
##  6     195500             3          926           926 Gilbert             1604
##  7     213500             3         1338          1338 Stone_Brook         1338
##  8     191500             1         1280          1280 Stone_Brook         1280
##  9     236500             3         1616          1595 Stone_Brook         1616
## 10     189000             7         1028           994 Gilbert             1804
## # … with 2,920 more rows
…
